…
> #### Data Cleaning ####
> # Step 1: Select relevant columns and remove duplicates
> cleaned_data <- raw_data %>%
+   select(YEAR, CATEGORY, TYPE, COUNT_) %>%  # Keep only the specified columns
+   distinct()  # Remove exact duplicate rows
> 
> # Step 2: Filter for years between 2014 and 2018 (inclusive)
> cleaned_data <- cleaned_data %>%
+   filter(YEAR >= 2014 & YEAR <= 2018)
> 
> #### Output the cleaned data ####
> print("Cleaned Data:")
[1] "Cleaned Data:"
> print(cleaned_data)
# A tibble: 130 × 4
    YEAR CATEGORY  TYPE      COUNT_
   <dbl> <chr>     <chr>      <dbl>
 1  2014 Languages Arabic        98
 2  2014 Languages Chinese     2069
 3  2014 Languages Croatian      12
 4  2014 Languages Farsi        165
 5  2014 Languages French       171
 6  2014 Languages German         7
 7  2014 Languages Greek         25
 8  2014 Languages Hindi         12
 9  2014 Languages Hungarian    173
10  2014 Languages Italian      110
# ℹ 120 more rows
# ℹ Use print(n = ...) to see more rows
…
